storage;path;count_found;count
\\10.10.10.205\Dados\Ago2013\;\\10.10.10.205\Dados\Ago2013\;0;0
\\10.10.10.205\Dados\Ago2013\;\\10.10.10.205\Dados\Ago2013\2992445;0;159
\\10.10.10.205\Dados\Ago2013\;\\10.10.10.205\Dados\Ago2013\13-08-06-161503;0;6
\\10.10.10.205\Dados\Ago2013\;\\10.10.10.205\Dados\Ago2013\41056-13-08-28-11;0;7
\\10.10.10.205\Dados\Ago2013\;\\10.10.10.205\Dados\Ago2013\161682;0;17
\\10.10.10.205\Dados\Ago2013\;\\10.10.10.205\Dados\Ago2013\000448346;0;16
\\10.10.10.205\Dados\Ago2013\;\\10.10.10.205\Dados\Ago2013\13-08-30-082001;0;10
\\10.10.10.205\Dados\Ago2013\;\\10.10.10.205\Dados\Ago2013\000470121-4;0;23
\\10.10.10.205\Dados\Ago2013\;\\10.10.10.205\Dados\Ago2013\75217-8;0;78
\\10.10.10.205\Dados\Ago2013\;\\10.10.10.205\Dados\Ago2013\11-10-05-160755;0;0
\\10.10.10.205\Dados\Ago2013\;\\10.10.10.205\Dados\Ago2013\229814;0;12
\\10.10.10.205\Dados\Ago2013\;\\10.10.10.205\Dados\Ago2014\000448346;0;0
\\10.10.10.205\Dados\Ago2013\;\\10.10.10.205\Dados\Ago2015\000448346;0;1
\\10.10.10.205\Dados\Ago2013\;/home/igor/pacs/pacs_docker/aurora/util/docker/run/volumes/aurora/dicom/24976;0;3